^C:\FREEGLUT-2.8.1\VISUALSTUDIO\2012\BUILD\DEBUG\WIN32_V110\FREEGLUT.RES|C:\FREEGLUT-2.8.1\VISUALSTUDIO\2012\BUILD\DEBUG\WIN32_V110\FREEGLUT_CALLBACKS.OBJ|C:\FREEGLUT-2.8.1\VISUALSTUDIO\2012\BUILD\DEBUG\WIN32_V110\FREEGLUT_CURSOR.OBJ|C:\FREEGLUT-2.8.1\VISUALSTUDIO\2012\BUILD\DEBUG\WIN32_V110\FREEGLUT_DISPLAY.OBJ|C:\FREEGLUT-2.8.1\VISUALSTUDIO\2012\BUILD\DEBUG\WIN32_V110\FREEGLUT_EXT.OBJ|C:\FREEGLUT-2.8.1\VISUALSTUDIO\2012\BUILD\DEBUG\WIN32_V110\FREEGLUT_FONT.OBJ|C:\FREEGLUT-2.8.1\VISUALSTUDIO\2012\BUILD\DEBUG\WIN32_V110\FREEGLUT_FONT_DATA.OBJ|C:\FREEGLUT-2.8.1\VISUALSTUDIO\2012\BUILD\DEBUG\WIN32_V110\FREEGLUT_GAMEMODE.OBJ|C:\FREEGLUT-2.8.1\VISUALSTUDIO\2012\BUILD\DEBUG\WIN32_V110\FREEGLUT_GEOMETRY.OBJ|C:\FREEGLUT-2.8.1\VISUALSTUDIO\2012\BUILD\DEBUG\WIN32_V110\FREEGLUT_GLUTFONT_DEFINITIONS.OBJ|C:\FREEGLUT-2.8.1\VISUALSTUDIO\2012\BUILD\DEBUG\WIN32_V110\FREEGLUT_INIT.OBJ|C:\FREEGLUT-2.8.1\VISUALSTUDIO\2012\BUILD\DEBUG\WIN32_V110\FREEGLUT_INPUT_DEVICES.OBJ|C:\FREEGLUT-2.8.1\VISUALSTUDIO\2012\BUILD\DEBUG\WIN32_V110\FREEGLUT_JOYSTICK.OBJ|C:\FREEGLUT-2.8.1\VISUALSTUDIO\2012\BUILD\DEBUG\WIN32_V110\FREEGLUT_MAIN.OBJ|C:\FREEGLUT-2.8.1\VISUALSTUDIO\2012\BUILD\DEBUG\WIN32_V110\FREEGLUT_MENU.OBJ|C:\FREEGLUT-2.8.1\VISUALSTUDIO\2012\BUILD\DEBUG\WIN32_V110\FREEGLUT_MISC.OBJ|C:\FREEGLUT-2.8.1\VISUALSTUDIO\2012\BUILD\DEBUG\WIN32_V110\FREEGLUT_OVERLAY.OBJ|C:\FREEGLUT-2.8.1\VISUALSTUDIO\2012\BUILD\DEBUG\WIN32_V110\FREEGLUT_SPACEBALL.OBJ|C:\FREEGLUT-2.8.1\VISUALSTUDIO\2012\BUILD\DEBUG\WIN32_V110\FREEGLUT_STATE.OBJ|C:\FREEGLUT-2.8.1\VISUALSTUDIO\2012\BUILD\DEBUG\WIN32_V110\FREEGLUT_STROKE_MONO_ROMAN.OBJ|C:\FREEGLUT-2.8.1\VISUALSTUDIO\2012\BUILD\DEBUG\WIN32_V110\FREEGLUT_STROKE_ROMAN.OBJ|C:\FREEGLUT-2.8.1\VISUALSTUDIO\2012\BUILD\DEBUG\WIN32_V110\FREEGLUT_STRUCTURE.OBJ|C:\FREEGLUT-2.8.1\VISUALSTUDIO\2012\BUILD\DEBUG\WIN32_V110\FREEGLUT_TEAPOT.OBJ|C:\FREEGLUT-2.8.1\VISUALSTUDIO\2012\BUILD\DEBUG\WIN32_V110\FREEGLUT_VIDEORESIZE.OBJ|C:\FREEGLUT-2.8.1\VISUALSTUDIO\2012\BUILD\DEBUG\WIN32_V110\FREEGLUT_WINDOW.OBJ
C:\FREEGLUT-2.8.1\LIB\X86\DEBUG\FREEGLUT.ILK
C:\FREEGLUT-2.8.1\LIB\X86\DEBUG\FREEGLUT.DLL
C:\FREEGLUT-2.8.1\LIB\X86\DEBUG\FREEGLUT.PDB
