^C:\freeglut-2.8.1\VisualStudio\2012\freeglut.vcxproj
C:\freeglut-2.8.1\lib\x86\freeglut.lib
C:\freeglut-2.8.1\lib\x86\freeglut.lib
C:\freeglut-2.8.1\lib\x86\freeglut.exp
C:\freeglut-2.8.1\lib\x86\freeglut.exp
